^E:\UBB\DIZ\PROJ\FSMEXT\FSMEXT\X64\DEBUG\ASSIG.OBJ|E:\UBB\DIZ\PROJ\FSMEXT\FSMEXT\X64\DEBUG\CODEPARSER.OBJ|E:\UBB\DIZ\PROJ\FSMEXT\FSMEXT\X64\DEBUG\CONSTRAINT.OBJ|E:\UBB\DIZ\PROJ\FSMEXT\FSMEXT\X64\DEBUG\CONSTRAINTSOLVER.OBJ|E:\UBB\DIZ\PROJ\FSMEXT\FSMEXT\X64\DEBUG\ENUM.OBJ|E:\UBB\DIZ\PROJ\FSMEXT\FSMEXT\X64\DEBUG\ENUMELEMENT.OBJ|E:\UBB\DIZ\PROJ\FSMEXT\FSMEXT\X64\DEBUG\FINITESTATEEXTRACTOR.OBJ|E:\UBB\DIZ\PROJ\FSMEXT\FSMEXT\X64\DEBUG\FINITESTATEMACHINE.OBJ|E:\UBB\DIZ\PROJ\FSMEXT\FSMEXT\X64\DEBUG\FSMEXT.OBJ|E:\UBB\DIZ\PROJ\FSMEXT\FSMEXT\X64\DEBUG\FSMEXTRACTORINTERFACE.OBJ|E:\UBB\DIZ\PROJ\FSMEXT\FSMEXT\X64\DEBUG\FUNCT.OBJ|E:\UBB\DIZ\PROJ\FSMEXT\FSMEXT\X64\DEBUG\LOOPP.OBJ|E:\UBB\DIZ\PROJ\FSMEXT\FSMEXT\X64\DEBUG\MAIN.OBJ|E:\UBB\DIZ\PROJ\FSMEXT\FSMEXT\X64\DEBUG\PANELS.OBJ|E:\UBB\DIZ\PROJ\FSMEXT\FSMEXT\X64\DEBUG\PATH.OBJ|E:\UBB\DIZ\PROJ\FSMEXT\FSMEXT\X64\DEBUG\SOURCEREADER.OBJ|E:\UBB\DIZ\PROJ\FSMEXT\FSMEXT\X64\DEBUG\STATE.OBJ|E:\UBB\DIZ\PROJ\FSMEXT\FSMEXT\X64\DEBUG\TRANSITIONEXTRACTOR.OBJ|E:\UBB\DIZ\PROJ\FSMEXT\FSMEXT\X64\DEBUG\TRANSITIONFUNCTION.OBJ|E:\UBB\DIZ\PROJ\FSMEXT\FSMEXT\X64\DEBUG\VARIAB.OBJ
E:\UBB\DIZ\PROJ\FSMEXT\X64\DEBUG\FSMEXT.EXE
E:\UBB\DIZ\PROJ\FSMEXT\X64\DEBUG\FSMEXT.ILK
E:\UBB\DIZ\PROJ\FSMEXT\X64\DEBUG\FSMEXT.PDB
