^E:\UBB\DIZ\PROJ\FSMEXT\FSMEXT\X64\DEBUG\FSMEXT.OBJ
/OUT:"E:\UBB\DIZ\PROJ\FSMEXT\X64\DEBUG\FSMEXT.EXE" /INCREMENTAL /NOLOGO /LIBPATH:E:\UBB\DIZ\PROJ\WXWIDGETS\LIB\VC141_X64_DLL KERNEL32.LIB USER32.LIB GDI32.LIB WINSPOOL.LIB COMDLG32.LIB ADVAPI32.LIB SHELL32.LIB OLE32.LIB OLEAUT32.LIB UUID.LIB ODBC32.LIB ODBCCP32.LIB /MANIFEST /MANIFESTUAC:"level='asInvoker' uiAccess='false'" /manifest:embed /DEBUG:FASTLINK /PDB:"E:\UBB\DIZ\PROJ\FSMEXT\X64\DEBUG\FSMEXT.PDB" /SUBSYSTEM:WINDOWS /TLBID:1 /DYNAMICBASE /NXCOMPAT /IMPLIB:"E:\UBB\DIZ\PROJ\FSMEXT\X64\DEBUG\FSMEXT.LIB" /MACHINE:X64 X64\DEBUG\FSMEXT.OBJ
^E:\UBB\DIZ\PROJ\FSMEXT\FSMEXT\X64\DEBUG\ASSIG.OBJ|E:\UBB\DIZ\PROJ\FSMEXT\FSMEXT\X64\DEBUG\CODEPARSER.OBJ|E:\UBB\DIZ\PROJ\FSMEXT\FSMEXT\X64\DEBUG\CONSTRAINT.OBJ|E:\UBB\DIZ\PROJ\FSMEXT\FSMEXT\X64\DEBUG\CONSTRAINTSOLVER.OBJ|E:\UBB\DIZ\PROJ\FSMEXT\FSMEXT\X64\DEBUG\ENUM.OBJ|E:\UBB\DIZ\PROJ\FSMEXT\FSMEXT\X64\DEBUG\ENUMELEMENT.OBJ|E:\UBB\DIZ\PROJ\FSMEXT\FSMEXT\X64\DEBUG\FINITESTATEEXTRACTOR.OBJ|E:\UBB\DIZ\PROJ\FSMEXT\FSMEXT\X64\DEBUG\FINITESTATEMACHINE.OBJ|E:\UBB\DIZ\PROJ\FSMEXT\FSMEXT\X64\DEBUG\FSMEXT.OBJ|E:\UBB\DIZ\PROJ\FSMEXT\FSMEXT\X64\DEBUG\FSMEXTRACTORINTERFACE.OBJ|E:\UBB\DIZ\PROJ\FSMEXT\FSMEXT\X64\DEBUG\FUNCT.OBJ|E:\UBB\DIZ\PROJ\FSMEXT\FSMEXT\X64\DEBUG\LOOPP.OBJ|E:\UBB\DIZ\PROJ\FSMEXT\FSMEXT\X64\DEBUG\MAIN.OBJ|E:\UBB\DIZ\PROJ\FSMEXT\FSMEXT\X64\DEBUG\PANELS.OBJ|E:\UBB\DIZ\PROJ\FSMEXT\FSMEXT\X64\DEBUG\PATH.OBJ|E:\UBB\DIZ\PROJ\FSMEXT\FSMEXT\X64\DEBUG\SOURCEREADER.OBJ|E:\UBB\DIZ\PROJ\FSMEXT\FSMEXT\X64\DEBUG\STATE.OBJ|E:\UBB\DIZ\PROJ\FSMEXT\FSMEXT\X64\DEBUG\TRANSITIONEXTRACTOR.OBJ|E:\UBB\DIZ\PROJ\FSMEXT\FSMEXT\X64\DEBUG\TRANSITIONFUNCTION.OBJ|E:\UBB\DIZ\PROJ\FSMEXT\FSMEXT\X64\DEBUG\VARIAB.OBJ
/OUT:"E:\UBB\DIZ\PROJ\FSMEXT\X64\DEBUG\FSMEXT.EXE" /INCREMENTAL /NOLOGO /LIBPATH:E:\UBB\DIZ\PROJ\WXWIDGETS\LIB\VC141_X64_DLL KERNEL32.LIB USER32.LIB GDI32.LIB WINSPOOL.LIB COMDLG32.LIB ADVAPI32.LIB SHELL32.LIB OLE32.LIB OLEAUT32.LIB UUID.LIB ODBC32.LIB ODBCCP32.LIB /MANIFEST /MANIFESTUAC:"level='asInvoker' uiAccess='false'" /manifest:embed /DEBUG:FASTLINK /PDB:"E:\UBB\DIZ\PROJ\FSMEXT\X64\DEBUG\FSMEXT.PDB" /SUBSYSTEM:WINDOWS /TLBID:1 /DYNAMICBASE /NXCOMPAT /IMPLIB:"E:\UBB\DIZ\PROJ\FSMEXT\X64\DEBUG\FSMEXT.LIB" /MACHINE:X64 X64\DEBUG\ASSIG.OBJX64\DEBUG\CODEPARSER.OBJX64\DEBUG\CONSTRAINT.OBJX64\DEBUG\CONSTRAINTSOLVER.OBJX64\DEBUG\ENUM.OBJX64\DEBUG\ENUMELEMENT.OBJX64\DEBUG\FINITESTATEEXTRACTOR.OBJX64\DEBUG\FINITESTATEMACHINE.OBJX64\DEBUG\FSMEXT.OBJX64\DEBUG\FSMEXTRACTORINTERFACE.OBJX64\DEBUG\FUNCT.OBJX64\DEBUG\LOOPP.OBJX64\DEBUG\MAIN.OBJX64\DEBUG\PANELS.OBJX64\DEBUG\PATH.OBJX64\DEBUG\SOURCEREADER.OBJX64\DEBUG\STATE.OBJX64\DEBUG\TRANSITIONEXTRACTOR.OBJX64\DEBUG\TRANSITIONFUNCTION.OBJX64\DEBUG\VARIAB.OBJ
