typedef enum elems {
	open = 0,
	process_inp,
	convert_inp,
	check_max,
	clo,
	input_error,
	error
} setState ;

bool cgc_parse_set ( char *right ) 
{
	setState state = start ;	
	while ( *right && state != close_set ) 
	{
		if ( *right == '|')
		{
			switch ( state ) {
				case start :
					state = open_set ; break ;
				case open_double : break ;
				default :
					state = close_set ; break ;
			}
		} else if ( *right == '"')
		{
			switch ( state ) {
				case open_double :
					state = close_double ; break ;
				case open_set :
					state = open_double ; break ;
				default :
					state = input_error ; goto end;
			}
		} else 
		{
			switch ( state ) {
				case open_double : break ;
				default :
					state = error ; goto end;
			}
		}
		right ++;
	}
end:
	if ( state != close_set ) {
		return false ;
		}
	return true ;
}


/*
 * Harness for testing with KLEE.
 */

// The size of the buffer to test with.
#define SIZE 7

int main () 
{
  // The input regular expression.
  char re[SIZE] ;
  
  // Make the input symbolic. 
  klee_make_symbolic(re, sizeof re, "re");

  // Try to match against a constant string "hello".
  cgc_parse_set(re);

  return 0;
}